1 10 20
100 200 125
201 210 89
900 1000 174
846097 988466 507
898382 920394 476
179856 878648 525
364109 397385 436
712251 847855 525
747581 802102 468
361827 769256 509
719679 373644 509
858878 238660 525
151702 135303 375
596722 175143 470
306092 346572 441
497609 139240 449
304944 271158 389
263577 45113 443
386604 348321 423
407273 105382 443
965525 398708 525
717326 841115 525
99304 285678 443
785 428 171
71 99 119
731 53 171
741 296 171
225 466 144
528 830 171
496 107 144
701 894 179
45 79 116
323 295 131
12 156 122
343 120 144
320 118 131
679 907 179
111 643 144
455 781 171
84 28 116
648 4 144
856 830 135
616 914 179
833 519 171
721 709 65
727 694 171
398 801 171
518 390 142
312 742 171
737 688 171
518 78 144
26 430 144
605 506 137
39 506 144
377 11 144
532 253 144
647 927 179
315 657 145
983 473 179
915 606 179
187 99 125
955 454 179
39 312 128
801 709 153
740 227 171
449 280 144
191 196 120
918 985 174
492 865 171
841 395 171
868 578 171
274 961 179
480 552 142
646 926 179
273 86 128
725 221 171
997 411 179
670 187 145
960 120 179
511 868 171
158 307 128
890 814 179
717 642 171
808 902 179
22 206 125
400 172 144
776 386 171
389 891 179
331 333 113
542 29 144
920 522 179
567 222 144
25 533 144
852 104 171
878 62 179
60 293 128
84 82 111
716 638 171
929 398 179
116 166 122
796 850 135
579 538 137
90 635 144
69 72 103
311 366 144
251 606 144
576 163 144
929 582 179
403 402 20
787 410 171
876 377 179
518 236 144
906 244 179
678 27 145
953 42 179
573 924 179
567 543 137
121 619 144
358 311 144
827 814 135
891 408 179
453 230 144
24 404 144
433 561 142
913 939 174
404 15 144
133 895 179
364 722 171
458 184 144
216 341 144
921 105 179
482 737 171
73 611 144
802 119 171
138 228 125
821 436 171
633 867 171
477 360 134
958 972 143
901 485 179
613 648 132
286 938 179
445 362 134
302 892 179
738 686 171
210 468 144
519 397 142
742 914 179
174 176 81
679 145 145
492 655 145
619 372 142
211 295 128
